assets/cpu.log
Starting tinyml_risc_cpu simulation
[RESET] PC=x
[RESET] PC=0
---- Cycle 0 ----
PC=0 (0x00000000) INSTR=0x51000201 OPCODE=0x5
ALU=0 (0x00000000) PARITY_ERR=0
Operands: RS1=R0 0 (0x00000000)  RS2=R0 0 (0x00000000)
Accumulator state: curr=0 next_if_acc=0
TRACE cycle=0 pc=0 opcode=5 alu=0 acc=0 rs1=0 rs2=0
Register file snapshot:
   R0=00000000 R1=00000000 R2=00000000 R3=00000000 
   R4=00000000 R5=00000000 R6=00000000 R7=00000000 
   R8=00000000 R9=00000000 R10=00000000 R11=00000000 
   R12=00000000 R13=00000000 R14=00000000 R15=00000000 

---- Cycle 1 ----
PC=4 (0x00000004) INSTR=0x61100403 OPCODE=0x6
ALU=0 (0x00000000) PARITY_ERR=0
Operands: RS1=R1 513 (0x00000201)  RS2=R0 0 (0x00000000)
Accumulator state: curr=0 next_if_acc=0
TRACE cycle=1 pc=4 opcode=6 alu=0 acc=0 rs1=513 rs2=0
Register file snapshot:
   R0=00000000 R1=00000201 R2=00000000 R3=00000000 
   R4=00000000 R5=00000000 R6=00000000 R7=00000000 
   R8=00000000 R9=00000000 R10=00000000 R11=00000000 
   R12=00000000 R13=00000000 R14=00000000 R15=00000000 

---- Cycle 2 ----
PC=8 (0x00000008) INSTR=0x52000605 OPCODE=0x5
ALU=0 (0x00000000) PARITY_ERR=0
Operands: RS1=R0 0 (0x00000000)  RS2=R0 0 (0x00000000)
Accumulator state: curr=0 next_if_acc=0
TRACE cycle=2 pc=8 opcode=5 alu=0 acc=0 rs1=0 rs2=0
Register file snapshot:
   R0=00000000 R1=04030201 R2=00000000 R3=00000000 
   R4=00000000 R5=00000000 R6=00000000 R7=00000000 
   R8=00000000 R9=00000000 R10=00000000 R11=00000000 
   R12=00000000 R13=00000000 R14=00000000 R15=00000000 

---- Cycle 3 ----
PC=12 (0x0000000c) INSTR=0x62200807 OPCODE=0x6
ALU=0 (0x00000000) PARITY_ERR=0
Operands: RS1=R2 1541 (0x00000605)  RS2=R0 0 (0x00000000)
Accumulator state: curr=0 next_if_acc=0
TRACE cycle=3 pc=12 opcode=6 alu=0 acc=0 rs1=1541 rs2=0
Register file snapshot:
   R0=00000000 R1=04030201 R2=00000605 R3=00000000 
   R4=00000000 R5=00000000 R6=00000000 R7=00000000 
   R8=00000000 R9=00000000 R10=00000000 R11=00000000 
   R12=00000000 R13=00000000 R14=00000000 R15=00000000 

---- Cycle 4 ----
PC=16 (0x00000010) INSTR=0x83120000 OPCODE=0x8
ALU=70 (0x00000046) PARITY_ERR=0
Operands: RS1=R1 67305985 (0x04030201)  RS2=R2 134678021 (0x08070605)
Accumulator state: curr=0 next_if_acc=0
TRACE cycle=4 pc=16 opcode=8 alu=70 acc=0 rs1=67305985 rs2=134678021
Register file snapshot:
   R0=00000000 R1=04030201 R2=08070605 R3=00000000 
   R4=00000000 R5=00000000 R6=00000000 R7=00000000 
   R8=00000000 R9=00000000 R10=00000000 R11=00000000 
   R12=00000000 R13=00000000 R14=00000000 R15=00000000 

   -> MAC4 executing: result=70 (0x00000046)
---- Cycle 5 ----
PC=20 (0x00000014) INSTR=0x04300000 OPCODE=0x0
ALU=70 (0x00000046) PARITY_ERR=0
Operands: RS1=R3 70 (0x00000046)  RS2=R0 0 (0x00000000)
Accumulator state: curr=0 next_if_acc=0
TRACE cycle=5 pc=20 opcode=0 alu=70 acc=0 rs1=70 rs2=0
Register file snapshot:
   R0=00000000 R1=04030201 R2=08070605 R3=00000046 
   R4=00000000 R5=00000000 R6=00000000 R7=00000000 
   R8=00000000 R9=00000000 R10=00000000 R11=00000000 
   R12=00000000 R13=00000000 R14=00000000 R15=00000000 

---- Cycle 6 ----
PC=24 (0x00000018) INSTR=0x45120000 OPCODE=0x4
ALU=201589764 (0x0c040404) PARITY_ERR=0
Operands: RS1=R1 67305985 (0x04030201)  RS2=R2 134678021 (0x08070605)
Accumulator state: curr=0 next_if_acc=0
TRACE cycle=6 pc=24 opcode=4 alu=201589764 acc=0 rs1=67305985 rs2=134678021
Register file snapshot:
   R0=00000000 R1=04030201 R2=08070605 R3=00000046 
   R4=00000046 R5=00000000 R6=00000000 R7=00000000 
   R8=00000000 R9=00000000 R10=00000000 R11=00000000 
   R12=00000000 R13=00000000 R14=00000000 R15=00000000 

---- Cycle 7 ----
PC=28 (0x0000001c) INSTR=0x5400fe01 OPCODE=0x5
ALU=0 (0x00000000) PARITY_ERR=0
Operands: RS1=R0 0 (0x00000000)  RS2=R0 0 (0x00000000)
Accumulator state: curr=0 next_if_acc=0
TRACE cycle=7 pc=28 opcode=5 alu=0 acc=0 rs1=0 rs2=0
Register file snapshot:
   R0=00000000 R1=04030201 R2=08070605 R3=00000046 
   R4=00000046 R5=0c040404 R6=00000000 R7=00000000 
   R8=00000000 R9=00000000 R10=00000000 R11=00000000 
   R12=00000000 R13=00000000 R14=00000000 R15=00000000 

---- Cycle 8 ----
PC=32 (0x00000020) INSTR=0x64400003 OPCODE=0x6
ALU=0 (0x00000000) PARITY_ERR=0
Operands: RS1=R4 65025 (0x0000fe01)  RS2=R0 0 (0x00000000)
Accumulator state: curr=0 next_if_acc=0
TRACE cycle=8 pc=32 opcode=6 alu=0 acc=0 rs1=65025 rs2=0
Register file snapshot:
   R0=00000000 R1=04030201 R2=08070605 R3=00000046 
   R4=0000fe01 R5=0c040404 R6=00000000 R7=00000000 
   R8=00000000 R9=00000000 R10=00000000 R11=00000000 
   R12=00000000 R13=00000000 R14=00000000 R15=00000000 

---- Cycle 9 ----
PC=36 (0x00000024) INSTR=0x55000102 OPCODE=0x5
ALU=0 (0x00000000) PARITY_ERR=0
Operands: RS1=R0 0 (0x00000000)  RS2=R0 0 (0x00000000)
Accumulator state: curr=0 next_if_acc=0
TRACE cycle=9 pc=36 opcode=5 alu=0 acc=0 rs1=0 rs2=0
Register file snapshot:
   R0=00000000 R1=04030201 R2=08070605 R3=00000046 
   R4=0003fe01 R5=0c040404 R6=00000000 R7=00000000 
   R8=00000000 R9=00000000 R10=00000000 R11=00000000 
   R12=00000000 R13=00000000 R14=00000000 R15=00000000 

---- Cycle 10 ----
PC=40 (0x00000028) INSTR=0x655000ff OPCODE=0x6
ALU=0 (0x00000000) PARITY_ERR=0
Operands: RS1=R5 258 (0x00000102)  RS2=R0 0 (0x00000000)
Accumulator state: curr=0 next_if_acc=0
TRACE cycle=10 pc=40 opcode=6 alu=0 acc=0 rs1=258 rs2=0
Register file snapshot:
   R0=00000000 R1=04030201 R2=08070605 R3=00000046 
   R4=0003fe01 R5=00000102 R6=00000000 R7=00000000 
   R8=00000000 R9=00000000 R10=00000000 R11=00000000 
   R12=00000000 R13=00000000 R14=00000000 R15=00000000 

---- Cycle 11 ----
PC=44 (0x0000002c) INSTR=0xd6450000 OPCODE=0xd
ALU=-3 (0xfffffffd) PARITY_ERR=0
Operands: RS1=R4 261633 (0x0003fe01)  RS2=R5 16711938 (0x00ff0102)
Accumulator state: curr=0 next_if_acc=0
TRACE cycle=11 pc=44 opcode=d alu=-3 acc=0 rs1=261633 rs2=16711938
Register file snapshot:
   R0=00000000 R1=04030201 R2=08070605 R3=00000046 
   R4=0003fe01 R5=00ff0102 R6=00000000 R7=00000000 
   R8=00000000 R9=00000000 R10=00000000 R11=00000000 
   R12=00000000 R13=00000000 R14=00000000 R15=00000000 

   -> CONV3 r4=261633 r5=16711938 result=-3
---- Cycle 12 ----
PC=48 (0x00000030) INSTR=0x57000064 OPCODE=0x5
ALU=0 (0x00000000) PARITY_ERR=0
Operands: RS1=R0 0 (0x00000000)  RS2=R0 0 (0x00000000)
Accumulator state: curr=0 next_if_acc=0
TRACE cycle=12 pc=48 opcode=5 alu=0 acc=0 rs1=0 rs2=0
Register file snapshot:
   R0=00000000 R1=04030201 R2=08070605 R3=00000046 
   R4=0003fe01 R5=00ff0102 R6=fffffffd R7=00000000 
   R8=00000000 R9=00000000 R10=00000000 R11=00000000 
   R12=00000000 R13=00000000 R14=00000000 R15=00000000 

---- Cycle 13 ----
PC=52 (0x00000034) INSTR=0xe8700000 OPCODE=0xe
ALU=127 (0x0000007f) PARITY_ERR=0
Operands: RS1=R7 100 (0x00000064)  RS2=R0 0 (0x00000000)
Accumulator state: curr=0 next_if_acc=0
TRACE cycle=13 pc=52 opcode=e alu=127 acc=0 rs1=100 rs2=0
Register file snapshot:
   R0=00000000 R1=04030201 R2=08070605 R3=00000046 
   R4=0003fe01 R5=00ff0102 R6=fffffffd R7=00000064 
   R8=00000000 R9=00000000 R10=00000000 R11=00000000 
   R12=00000000 R13=00000000 R14=00000000 R15=00000000 

   -> SIGMOID input=100 output=127 (0x7f)
---- Cycle 14 ----
PC=56 (0x00000038) INSTR=0x5900ffb0 OPCODE=0x5
ALU=0 (0x00000000) PARITY_ERR=0
Operands: RS1=R0 0 (0x00000000)  RS2=R0 0 (0x00000000)
Accumulator state: curr=0 next_if_acc=0
TRACE cycle=14 pc=56 opcode=5 alu=0 acc=0 rs1=0 rs2=0
Register file snapshot:
   R0=00000000 R1=04030201 R2=08070605 R3=00000046 
   R4=0003fe01 R5=00ff0102 R6=fffffffd R7=00000064 
   R8=0000007f R9=00000000 R10=00000000 R11=00000000 
   R12=00000000 R13=00000000 R14=00000000 R15=00000000 

---- Cycle 15 ----
PC=60 (0x0000003c) INSTR=0x6990ffff OPCODE=0x6
ALU=0 (0x00000000) PARITY_ERR=0
Operands: RS1=R9 65456 (0x0000ffb0)  RS2=R0 0 (0x00000000)
Accumulator state: curr=0 next_if_acc=0
TRACE cycle=15 pc=60 opcode=6 alu=0 acc=0 rs1=65456 rs2=0
Register file snapshot:
   R0=00000000 R1=04030201 R2=08070605 R3=00000046 
   R4=0003fe01 R5=00ff0102 R6=fffffffd R7=00000064 
   R8=0000007f R9=0000ffb0 R10=00000000 R11=00000000 
   R12=00000000 R13=00000000 R14=00000000 R15=00000000 

---- Cycle 16 ----
PC=64 (0x00000040) INSTR=0xea900000 OPCODE=0xe
ALU=128 (0x00000080) PARITY_ERR=0
Operands: RS1=R9 -80 (0xffffffb0)  RS2=R0 0 (0x00000000)
Accumulator state: curr=0 next_if_acc=0
TRACE cycle=16 pc=64 opcode=e alu=128 acc=0 rs1=-80 rs2=0
Register file snapshot:
   R0=00000000 R1=04030201 R2=08070605 R3=00000046 
   R4=0003fe01 R5=00ff0102 R6=fffffffd R7=00000064 
   R8=0000007f R9=ffffffb0 R10=00000000 R11=00000000 
   R12=00000000 R13=00000000 R14=00000000 R15=00000000 

   -> SIGMOID input=-80 output=-128 (0x80)
---- Cycle 17 ----
PC=68 (0x00000044) INSTR=0xf0300000 OPCODE=0xf
ALU=0 (0x00000000) PARITY_ERR=0
Operands: RS1=R3 70 (0x00000046)  RS2=R0 0 (0x00000000)
Accumulator state: curr=0 next_if_acc=70
TRACE cycle=17 pc=68 opcode=f alu=0 acc=0 rs1=70 rs2=0
Register file snapshot:
   R0=00000000 R1=04030201 R2=08070605 R3=00000046 
   R4=0003fe01 R5=00ff0102 R6=fffffffd R7=00000064 
   R8=0000007f R9=ffffffb0 R10=00000080 R11=00000000 
   R12=00000000 R13=00000000 R14=00000000 R15=00000000 

   -> ACC input=R3=70 accum_before=0 accum_after=70
---- Cycle 18 ----
PC=72 (0x00000048) INSTR=0xf0600000 OPCODE=0xf
ALU=70 (0x00000046) PARITY_ERR=0
Operands: RS1=R6 -3 (0xfffffffd)  RS2=R0 0 (0x00000000)
Accumulator state: curr=70 next_if_acc=67
TRACE cycle=18 pc=72 opcode=f alu=70 acc=70 rs1=-3 rs2=0
Register file snapshot:
   R0=00000000 R1=04030201 R2=08070605 R3=00000046 
   R4=0003fe01 R5=00ff0102 R6=fffffffd R7=00000064 
   R8=0000007f R9=ffffffb0 R10=00000080 R11=00000000 
   R12=00000000 R13=00000000 R14=00000000 R15=00000000 

   -> ACC input=R6=-3 accum_before=70 accum_after=67
---- Cycle 19 ----
PC=76 (0x0000004c) INSTR=0xf0a00000 OPCODE=0xf
ALU=67 (0x00000043) PARITY_ERR=0
Operands: RS1=R10 128 (0x00000080)  RS2=R0 0 (0x00000000)
Accumulator state: curr=67 next_if_acc=195
TRACE cycle=19 pc=76 opcode=f alu=67 acc=67 rs1=128 rs2=0
Register file snapshot:
   R0=00000000 R1=04030201 R2=08070605 R3=00000046 
   R4=0003fe01 R5=00ff0102 R6=fffffffd R7=00000064 
   R8=0000007f R9=ffffffb0 R10=00000080 R11=00000000 
   R12=00000000 R13=00000000 R14=00000000 R15=00000000 

   -> ACC input=R10=128 accum_before=67 accum_after=195
---- Cycle 20 ----
PC=80 (0x00000050) INSTR=0x00000000 OPCODE=0x0
ALU=0 (0x00000000) PARITY_ERR=0
Operands: RS1=R0 0 (0x00000000)  RS2=R0 0 (0x00000000)
Accumulator state: curr=195 next_if_acc=195
TRACE cycle=20 pc=80 opcode=0 alu=0 acc=195 rs1=0 rs2=0
Register file snapshot:
   R0=00000000 R1=04030201 R2=08070605 R3=00000046 
   R4=0003fe01 R5=00ff0102 R6=fffffffd R7=00000064 
   R8=0000007f R9=ffffffb0 R10=00000080 R11=00000000 
   R12=00000000 R13=00000000 R14=00000000 R15=00000000 

Program complete.
   MAC4 result  : R3=70 (0x00000046)
   CONV3 result : R6=-3 (0xfffffffd)
   SIGMOID (+)  : R8=127 (0x0000007f)
   SIGMOID (-)  : R10=-128 (0x00000080)
   ACC final    : 195 (0x000000c3)
tb/cpu_tb.v:77: $finish called at 225000 (1ps)
